%YAML 1.1
%TAG !u! tag:unity3d.com,2011:
--- !u!1045 &1
EditorBuildSettings:
  m_ObjectHideFlags: 0
  serializedVersion: 2
  m_Scenes:
  - enabled: 1
    path: Assets/Scenes/Game.unity
    guid: c4f4e94e92dec2147957433d31ce3af9
  - enabled: 1
    path: Assets/Scenes/GameOver.unity
    guid: 2cda990e2423bbf4892e6590ba056729
  - enabled: 1
    path: Assets/Scenes/Game2.unity
    guid: 7acc14ec1f97f5f4fb0414ae3133d51c
  m_configObjects: {}
